{
  "pnj": "Georges",
  "chat": [
      {
      "question": {
        "type": "in progress",
        "text": "C'est fou le bruit que font les animaux près de la route de l'est. Je n'arrive plus a dormir. De mon temps on arrivait à dormir.",
        "from": "in progress"
      },
      "answers": [
          "Je vais aller voir."
      ]
    },
      {
      "question": {
        "type": "finish",
        "text": "J'ai besoin de sommeil...De mon temps on dormais au moins 25heures par jour.",
        "from": "finish"
      },
      "answers": [
        "..."
      ]
    }
  ]
}