{
  "pnj": "Pere",
  "chat": [
      {
      "question": {
        "type": "begin",
        "text": "Alors ? Tu l'as trouvé ?",
        "from": "begin"
      },
      "answers": [
          "Oui mais..."
      ]
    },
      {
      "question": {
        "type": "",
        "text": "Je vois... Il s'est encore enfuit. Va demander au villageois, on va t'aider à trouver où chercher.",
        "from": "Oui mais..."
      },
      "answers": [
        "Ok"
      ]
    },
      {
      "question": {
        "type": "finish",
        "text": "",
        "from": "finish"
      },
      "answers": [
        "Ok"
      ]
    },
      {
      "question": {
        "type": "in progress",
        "text": "Commence avec Mr.Georges. Il habite au sud-ouest",
        "from": "in progress"
      },
      "answers": [
        "Ok"
      ]
    }
  ]
}