{
  "name" : "A la recherche d'un rat, Partie I:",
  "quest" : 1,
  "step" : 7,
  "description" : "Le rat de la cave laisse des traces sur son passage. Demandez de l'aide aux habitants pour les trouver.",
  "goal" : {
    "type" : "CLUE",
    "target" : "Traces du rat",
    "number" : 4
  },
  "reward" : 600,
  "next" : "1-8",
  "dialogs" : [
    {
      "npc" : "georges",
      "map" : "maison2RPG.tmx",
      "position" : {
        "x" : 640,
        "y" : 768
      },
      "quest" : "",
      "givequest" : ""
    },
    {
      "npc" : "bernard",
      "map" : "maison2RPG2.tmx",
      "position" : {
        "x" : 960,
        "y" : 640
      },
      "quest" : "",
      "givequest" : ""
    },
    {
      "npc" : "juliette",
      "map" : "maison2RPG3.tmx",
      "position" : {
        "x" : 896,
        "y" : 704
      },
      "quest" : "",
      "givequest" : ""
    }
  ],
  "spawns" : {
    "clue" : [
      {
        "name" : "Crottes de rat",
        "image" : "Crottes_Indice.png",
        "map" : "jardinRPG.tmx",
        "position" : {
          "x" : 2496,
          "y" : 704
        }
      },
      {
        "name" : "Traces de pattes",
        "image" : "Pattes_Indice.png",
        "map" : "jardinRPG.tmx",
        "position" : {
          "x" : 2816,
          "y" : 1728
        }
      },
      {
        "name" : "Poils noirs",
        "image" : "Poils_Indice.png",
        "map" : "maisonRPG.tmx",
        "position" : {
          "x" : 1536,
          "y" : 384
        }
      },
      {
        "name" : "Pétales rouges",
        "image" : "Petales_Indice.png",
        "map" : "maison2RPG.tmx",
        "position" : {
          "x" : 0,
          "y" : 0
        }
      }
    ],
    "monster" : [
      
    ],
    "chest" : [
      
    ]
  }
}